<?xml version="1.0" encoding="UTF-8"?>
<testsuites tests="27" failures="4" disabled="0" errors="0" timestamp="2020-05-07T19:38:37" time="0.003" name="AllTests">
  <testsuite name="RTC_TestCase_RTC_update" tests="11" failures="2" disabled="0" errors="0" time="0.002">
    <testcase name="CorrectTimeUpdateTest" status="run" time="0" classname="RTC_TestCase_RTC_update" />
    <testcase name="SecondsInvalidTest" status="run" time="0.001" classname="RTC_TestCase_RTC_update">
      <failure message="C:\Users\Admin\Desktop\Tiva\iet_2019_se_kt401\04_SoftwareDev\Testing\Source_UT\TST\gtst_M_rtc_handler.cpp:45&#x0A;Expected equality of these values:&#x0A;  FAILURE&#x0A;    Which is: 2&#x0A;  (G_RESP_CODE)RTC_update()&#x0A;    Which is: 1" type=""><![CDATA[C:\Users\Admin\Desktop\Tiva\iet_2019_se_kt401\04_SoftwareDev\Testing\Source_UT\TST\gtst_M_rtc_handler.cpp:45
Expected equality of these values:
  FAILURE
    Which is: 2
  (G_RESP_CODE)RTC_update()
    Which is: 1]]></failure>
    </testcase>
    <testcase name="MinutesInvalidTest" status="run" time="0" classname="RTC_TestCase_RTC_update" />
    <testcase name="YearZeroTest" status="run" time="0" classname="RTC_TestCase_RTC_update" />
    <testcase name="YearUpperboundTest_0" status="run" time="0" classname="RTC_TestCase_RTC_update">
      <failure message="C:\Users\Admin\Desktop\Tiva\iet_2019_se_kt401\04_SoftwareDev\Testing\Source_UT\TST\gtst_M_rtc_handler.cpp:67&#x0A;Expected equality of these values:&#x0A;  FAILURE&#x0A;    Which is: 2&#x0A;  (G_RESP_CODE)RTC_update()&#x0A;    Which is: 1" type=""><![CDATA[C:\Users\Admin\Desktop\Tiva\iet_2019_se_kt401\04_SoftwareDev\Testing\Source_UT\TST\gtst_M_rtc_handler.cpp:67
Expected equality of these values:
  FAILURE
    Which is: 2
  (G_RESP_CODE)RTC_update()
    Which is: 1]]></failure>
    </testcase>
    <testcase name="YearUpperboundTest_1" status="run" time="0" classname="RTC_TestCase_RTC_update" />
    <testcase name="YearUpperboundTest_2" status="run" time="0" classname="RTC_TestCase_RTC_update" />
    <testcase name="YearLowerboundTest_0" status="run" time="0" classname="RTC_TestCase_RTC_update" />
    <testcase name="YearLowerboundTest_1" status="run" time="0" classname="RTC_TestCase_RTC_update" />
    <testcase name="YearLowerboundTest_2" status="run" time="0" classname="RTC_TestCase_RTC_update" />
    <testcase name="MonthInvalidCheck" status="run" time="0" classname="RTC_TestCase_RTC_update" />
  </testsuite>
  <testsuite name="RTC_HANDLER_LOG_TEST" tests="6" failures="0" disabled="0" errors="0" time="0">
    <testcase name="ReturnPointerValidCheck" status="run" time="0" classname="RTC_HANDLER_LOG_TEST" />
    <testcase name="ReturnPointerInvalidCheck" status="run" time="0" classname="RTC_HANDLER_LOG_TEST" />
    <testcase name="Test3" status="run" time="0" classname="RTC_HANDLER_LOG_TEST" />
    <testcase name="Test4" status="run" time="0" classname="RTC_HANDLER_LOG_TEST" />
    <testcase name="Test5" status="run" time="0" classname="RTC_HANDLER_LOG_TEST" />
    <testcase name="StringFormatValidCheck" status="run" time="0" classname="RTC_HANDLER_LOG_TEST" />
  </testsuite>
  <testsuite name="RTC_TestCase_currTimeToArray" tests="2" failures="0" disabled="0" errors="0" time="0.001">
    <testcase name="Test1" status="run" time="0" classname="RTC_TestCase_currTimeToArray" />
    <testcase name="Test2" status="run" time="0.001" classname="RTC_TestCase_currTimeToArray" />
  </testsuite>
  <testsuite name="EVENT_TestCase" tests="2" failures="0" disabled="0" errors="0" time="0">
    <testcase name="test1" status="run" time="0" classname="EVENT_TestCase" />
    <testcase name="test2" status="run" time="0" classname="EVENT_TestCase" />
  </testsuite>
  <testsuite name="RTC_TestCase_Boundarytest" tests="6" failures="2" disabled="0" errors="0" time="0">
    <testcase name="Test1" status="run" time="0" classname="RTC_TestCase_Boundarytest" />
    <testcase name="Test2" status="run" time="0" classname="RTC_TestCase_Boundarytest">
      <failure message="C:\Users\Admin\Desktop\Tiva\iet_2019_se_kt401\04_SoftwareDev\Testing\Source_UT\TST\gtst_M_rtc_handler.cpp:213&#x0A;Expected equality of these values:&#x0A;  FAILURE&#x0A;    Which is: 2&#x0A;  (G_RESP_CODE)RTC_update()&#x0A;    Which is: 1" type=""><![CDATA[C:\Users\Admin\Desktop\Tiva\iet_2019_se_kt401\04_SoftwareDev\Testing\Source_UT\TST\gtst_M_rtc_handler.cpp:213
Expected equality of these values:
  FAILURE
    Which is: 2
  (G_RESP_CODE)RTC_update()
    Which is: 1]]></failure>
    </testcase>
    <testcase name="Test3" status="run" time="0" classname="RTC_TestCase_Boundarytest" />
    <testcase name="Test4" status="run" time="0" classname="RTC_TestCase_Boundarytest">
      <failure message="C:\Users\Admin\Desktop\Tiva\iet_2019_se_kt401\04_SoftwareDev\Testing\Source_UT\TST\gtst_M_rtc_handler.cpp:227&#x0A;Expected equality of these values:&#x0A;  SUCCESS&#x0A;    Which is: 1&#x0A;  (G_RESP_CODE)RTC_update()&#x0A;    Which is: 2" type=""><![CDATA[C:\Users\Admin\Desktop\Tiva\iet_2019_se_kt401\04_SoftwareDev\Testing\Source_UT\TST\gtst_M_rtc_handler.cpp:227
Expected equality of these values:
  SUCCESS
    Which is: 1
  (G_RESP_CODE)RTC_update()
    Which is: 2]]></failure>
    </testcase>
    <testcase name="Test5" status="run" time="0" classname="RTC_TestCase_Boundarytest" />
    <testcase name="Test6" status="run" time="0" classname="RTC_TestCase_Boundarytest" />
  </testsuite>
</testsuites>
